PCBNEW-LibModule-V1  2020-03-03 17:02:12
# encoding utf-8
Units mm
$INDEX
101181920001LF
$EndINDEX
$MODULE 101181920001LF
Po 0 0 0 15 5e5e8d94 00000000 ~~
Li 101181920001LF
Cd 10118192-0001LF
Kw Connector
Sc 0
At SMD
AR 
Op 0 0 0
T0 -0.000 -0 1.27 1.27 0 0.254 N V 21 N "J**"
T1 -0.000 -0 1.27 1.27 0 0.254 N I 21 N "101181920001LF"
DS -3.95 -1.971 3.95 -1.971 0.254 24
DS 3.95 -1.971 3.95 3.079 0.254 24
DS 3.95 3.079 -3.95 3.079 0.254 24
DS -3.95 3.079 -3.95 -1.971 0.254 24
DS -5.75 -4.079 5.75 -4.079 0.1 24
DS 5.75 -4.079 5.75 4.079 0.1 24
DS 5.75 4.079 -5.75 4.079 0.1 24
DS -5.75 4.079 -5.75 -4.079 0.1 24
DS 3.95 3.079 -3.95 3.079 0.254 21
DS -3.95 3.079 -3.95 2.293 0.254 21
DS 3.95 3.079 3.95 2.293 0.254 21
DS -1.4 -3.066 -1.4 -3.066 0.2 21
DS -1.2 -3.066 -1.2 -3.066 0.2 21
DA -1.3 -3.066 -1.400 -3.066 -1800 0.2 21
DA -1.3 -3.066 -1.200 -3.066 -1800 0.2 21
$PAD
Po -1.300 -1.682
Sh "1" R 0.400 1.350 0 0 0
At SMD N 00888000
Ne 0 ""
$EndPAD
$PAD
Po -0.650 -1.682
Sh "2" R 0.400 1.350 0 0 0
At SMD N 00888000
Ne 0 ""
$EndPAD
$PAD
Po 0.000 -1.682
Sh "3" R 0.400 1.350 0 0 0
At SMD N 00888000
Ne 0 ""
$EndPAD
$PAD
Po 0.650 -1.682
Sh "4" R 0.400 1.350 0 0 0
At SMD N 00888000
Ne 0 ""
$EndPAD
$PAD
Po 1.300 -1.682
Sh "5" R 0.400 1.350 0 0 0
At SMD N 00888000
Ne 0 ""
$EndPAD
$PAD
Po -3.100 -1.557
Sh "6" R 1.600 2.100 0 0 900
At SMD N 00888000
Ne 0 ""
$EndPAD
$PAD
Po 3.100 -1.557
Sh "7" R 1.600 2.100 0 0 900
At SMD N 00888000
Ne 0 ""
$EndPAD
$PAD
Po -1.200 0.993
Sh "8" R 1.900 1.900 0 0 900
At SMD N 00888000
Ne 0 ""
$EndPAD
$PAD
Po 1.200 0.993
Sh "9" R 1.900 1.900 0 0 900
At SMD N 00888000
Ne 0 ""
$EndPAD
$PAD
Po -3.800 0.993
Sh "10" R 1.900 1.900 0 0 900
At SMD N 00888000
Ne 0 ""
$EndPAD
$PAD
Po 3.800 0.993
Sh "11" R 1.900 1.900 0 0 900
At SMD N 00888000
Ne 0 ""
$EndPAD
$EndMODULE 101181920001LF
$EndLIBRARY
