PCBNEW-LibModule-V1  2020-03-03 17:15:39
# encoding utf-8
Units mm
$INDEX
ABLS
$EndINDEX
$MODULE ABLS
Po 0 0 0 15 5e5e90bb 00000000 ~~
Li ABLS
Cd ABLS
Kw Crystal or Oscillator
Sc 0
At SMD
AR 
Op 0 0 0
T0 -0.326 -0.119 1.27 1.27 0 0.254 N V 21 N "Y**"
T1 -0.326 -0.119 1.27 1.27 0 0.254 N I 21 N "ABLS"
DS -5.7 -2.35 5.7 -2.35 0.2 24
DS 5.7 -2.35 5.7 2.35 0.2 24
DS 5.7 2.35 -5.7 2.35 0.2 24
DS -5.7 2.35 -5.7 -2.35 0.2 24
DS -5.7 -2.35 5.7 -2.35 0.2 21
DS 5.7 2.35 -5.7 2.35 0.2 21
DS -5.7 2.35 -5.7 1.364 0.2 21
DS -5.7 -2.35 -5.7 -1.364 0.2 21
DS 5.7 -2.35 5.7 -1.364 0.2 21
DS 5.7 2.35 5.7 1.364 0.2 21
DC -8.372 0.022 -8.46476 0.022 0.254 21
$PAD
Po -4.75 0
Sh "1" R 2.1 5.6 0 0 900
At SMD N 00888000
Ne 0 ""
$EndPAD
$PAD
Po 4.75 0
Sh "2" R 2.1 5.6 0 0 900
At SMD N 00888000
Ne 0 ""
$EndPAD
$EndMODULE ABLS
$EndLIBRARY
