(module "CAPC2012X135N" (layer F.Cu)
  (descr "0805")
  (tags "Capacitor")
  (attr smd)
  (fp_text reference C** (at 0 0) (layer F.SilkS)
    (effects (font (size 1.27 1.27) (thickness 0.254)))
  )
  (fp_text user %R (at 0 0) (layer F.Fab)
    (effects (font (size 1.27 1.27) (thickness 0.254)))
  )
  (fp_text value "CAPC2012X135N" (at 0 0) (layer F.SilkS) hide
    (effects (font (size 1.27 1.27) (thickness 0.254)))
  )
  (fp_line (start -1.42 -0.85) (end 1.42 -0.85) (layer F.CrtYd) (width 0.05))
  (fp_line (start 1.42 -0.85) (end 1.42 0.85) (layer F.CrtYd) (width 0.05))
  (fp_line (start 1.42 0.85) (end -1.42 0.85) (layer F.CrtYd) (width 0.05))
  (fp_line (start -1.42 0.85) (end -1.42 -0.85) (layer F.CrtYd) (width 0.05))
  (fp_line (start -1 -0.625) (end 1 -0.625) (layer F.Fab) (width 0.1))
  (fp_line (start 1 -0.625) (end 1 0.625) (layer F.Fab) (width 0.1))
  (fp_line (start 1 0.625) (end -1 0.625) (layer F.Fab) (width 0.1))
  (fp_line (start -1 0.625) (end -1 -0.625) (layer F.Fab) (width 0.1))
  (pad 1 smd rect (at -0.79 0 0) (size 0.96 1.39) (layers F.Cu F.Paste F.Mask))
  (pad 2 smd rect (at 0.79 0 0) (size 0.96 1.39) (layers F.Cu F.Paste F.Mask))
  (model UMK212B7105KG-T.stp
    (at (xyz 0 0 0))
    (scale (xyz 1 1 1))
    (rotate (xyz 0 0 0))
  )
)
