PCBNEW-LibModule-V1  2020-03-03 16:32:47
# encoding utf-8
Units mm
$INDEX
RESC6332X70N
$EndINDEX
$MODULE RESC6332X70N
Po 0 0 0 15 5e5e86af 00000000 ~~
Li RESC6332X70N
Cd CRCW2512
Kw Resistor
Sc 0
At SMD
AR 
Op 0 0 0
T0 0 0 1.27 1.27 0 0.254 N V 21 N "R**"
T1 0 0 1.27 1.27 0 0.254 N I 21 N "RESC6332X70N"
DS -3.875 -1.95 3.875 -1.95 0.05 24
DS 3.875 -1.95 3.875 1.95 0.05 24
DS 3.875 1.95 -3.875 1.95 0.05 24
DS -3.875 1.95 -3.875 -1.95 0.05 24
DS -3.15 -1.575 3.15 -1.575 0.1 24
DS 3.15 -1.575 3.15 1.575 0.1 24
DS 3.15 1.575 -3.15 1.575 0.1 24
DS -3.15 1.575 -3.15 -1.575 0.1 24
DS 0 -1.475 0 1.475 0.2 21
$PAD
Po -3 0
Sh "1" R 1.25 3.35 0 0 0
At SMD N 00888000
Ne 0 ""
$EndPAD
$PAD
Po 3 0
Sh "2" R 1.25 3.35 0 0 0
At SMD N 00888000
Ne 0 ""
$EndPAD
$EndMODULE RESC6332X70N
$EndLIBRARY
