PCBNEW-LibModule-V1  2020-03-05 14:46:20
# encoding utf-8
Units mm
$INDEX
QFN50P500X500X80-33N-D
$EndINDEX
$MODULE QFN50P500X500X80-33N-D
Po 0 0 0 15 5e6110bc 00000000 ~~
Li QFN50P500X500X80-33N-D
Cd WQFN
Kw Integrated Circuit
Sc 0
At SMD
AR 
Op 0 0 0
T0 0 0 1.27 1.27 0 0.254 N V 21 N "IC**"
T1 0 0 1.27 1.27 0 0.254 N I 21 N "QFN50P500X500X80-33N-D"
DS -3.15 -3.15 3.15 -3.15 0.05 24
DS 3.15 -3.15 3.15 3.15 0.05 24
DS 3.15 3.15 -3.15 3.15 0.05 24
DS -3.15 3.15 -3.15 -3.15 0.05 24
DS -2.5 -2.5 2.5 -2.5 0.1 24
DS 2.5 -2.5 2.5 2.5 0.1 24
DS 2.5 2.5 -2.5 2.5 0.1 24
DS -2.5 2.5 -2.5 -2.5 0.1 24
DS -2.5 -2 -2 -2.5 0.1 24
DC -2.9 -2.5 -2.775 -2.5 0.254 21
$PAD
Po -2.45 -1.75
Sh "1" R 0.3 0.9 0 0 900
At SMD N 00888000
Ne 0 ""
$EndPAD
$PAD
Po -2.45 -1.25
Sh "2" R 0.3 0.9 0 0 900
At SMD N 00888000
Ne 0 ""
$EndPAD
$PAD
Po -2.45 -0.75
Sh "3" R 0.3 0.9 0 0 900
At SMD N 00888000
Ne 0 ""
$EndPAD
$PAD
Po -2.45 -0.25
Sh "4" R 0.3 0.9 0 0 900
At SMD N 00888000
Ne 0 ""
$EndPAD
$PAD
Po -2.45 0.25
Sh "5" R 0.3 0.9 0 0 900
At SMD N 00888000
Ne 0 ""
$EndPAD
$PAD
Po -2.45 0.75
Sh "6" R 0.3 0.9 0 0 900
At SMD N 00888000
Ne 0 ""
$EndPAD
$PAD
Po -2.45 1.25
Sh "7" R 0.3 0.9 0 0 900
At SMD N 00888000
Ne 0 ""
$EndPAD
$PAD
Po -2.45 1.75
Sh "8" R 0.3 0.9 0 0 900
At SMD N 00888000
Ne 0 ""
$EndPAD
$PAD
Po -1.75 2.45
Sh "9" R 0.3 0.9 0 0 0
At SMD N 00888000
Ne 0 ""
$EndPAD
$PAD
Po -1.25 2.45
Sh "10" R 0.3 0.9 0 0 0
At SMD N 00888000
Ne 0 ""
$EndPAD
$PAD
Po -0.75 2.45
Sh "11" R 0.3 0.9 0 0 0
At SMD N 00888000
Ne 0 ""
$EndPAD
$PAD
Po -0.25 2.45
Sh "12" R 0.3 0.9 0 0 0
At SMD N 00888000
Ne 0 ""
$EndPAD
$PAD
Po 0.25 2.45
Sh "13" R 0.3 0.9 0 0 0
At SMD N 00888000
Ne 0 ""
$EndPAD
$PAD
Po 0.75 2.45
Sh "14" R 0.3 0.9 0 0 0
At SMD N 00888000
Ne 0 ""
$EndPAD
$PAD
Po 1.25 2.45
Sh "15" R 0.3 0.9 0 0 0
At SMD N 00888000
Ne 0 ""
$EndPAD
$PAD
Po 1.75 2.45
Sh "16" R 0.3 0.9 0 0 0
At SMD N 00888000
Ne 0 ""
$EndPAD
$PAD
Po 2.45 1.75
Sh "17" R 0.3 0.9 0 0 900
At SMD N 00888000
Ne 0 ""
$EndPAD
$PAD
Po 2.45 1.25
Sh "18" R 0.3 0.9 0 0 900
At SMD N 00888000
Ne 0 ""
$EndPAD
$PAD
Po 2.45 0.75
Sh "19" R 0.3 0.9 0 0 900
At SMD N 00888000
Ne 0 ""
$EndPAD
$PAD
Po 2.45 0.25
Sh "20" R 0.3 0.9 0 0 900
At SMD N 00888000
Ne 0 ""
$EndPAD
$PAD
Po 2.45 -0.25
Sh "21" R 0.3 0.9 0 0 900
At SMD N 00888000
Ne 0 ""
$EndPAD
$PAD
Po 2.45 -0.75
Sh "22" R 0.3 0.9 0 0 900
At SMD N 00888000
Ne 0 ""
$EndPAD
$PAD
Po 2.45 -1.25
Sh "23" R 0.3 0.9 0 0 900
At SMD N 00888000
Ne 0 ""
$EndPAD
$PAD
Po 2.45 -1.75
Sh "24" R 0.3 0.9 0 0 900
At SMD N 00888000
Ne 0 ""
$EndPAD
$PAD
Po 1.75 -2.45
Sh "25" R 0.3 0.9 0 0 0
At SMD N 00888000
Ne 0 ""
$EndPAD
$PAD
Po 1.25 -2.45
Sh "26" R 0.3 0.9 0 0 0
At SMD N 00888000
Ne 0 ""
$EndPAD
$PAD
Po 0.75 -2.45
Sh "27" R 0.3 0.9 0 0 0
At SMD N 00888000
Ne 0 ""
$EndPAD
$PAD
Po 0.25 -2.45
Sh "28" R 0.3 0.9 0 0 0
At SMD N 00888000
Ne 0 ""
$EndPAD
$PAD
Po -0.25 -2.45
Sh "29" R 0.3 0.9 0 0 0
At SMD N 00888000
Ne 0 ""
$EndPAD
$PAD
Po -0.75 -2.45
Sh "30" R 0.3 0.9 0 0 0
At SMD N 00888000
Ne 0 ""
$EndPAD
$PAD
Po -1.25 -2.45
Sh "31" R 0.3 0.9 0 0 0
At SMD N 00888000
Ne 0 ""
$EndPAD
$PAD
Po -1.75 -2.45
Sh "32" R 0.3 0.9 0 0 0
At SMD N 00888000
Ne 0 ""
$EndPAD
$PAD
Po 0 0
Sh "33" R 3.55 3.55 0 0 0
At SMD N 00888000
Ne 0 ""
$EndPAD
$EndMODULE QFN50P500X500X80-33N-D
$EndLIBRARY
