PCBNEW-LibModule-V1  2020-03-03 16:36:35
# encoding utf-8
Units mm
$INDEX
INDPM172172X700N
$EndINDEX
$MODULE INDPM172172X700N
Po 0 0 0 15 5e5e8793 00000000 ~~
Li INDPM172172X700N
Cd IHLP6767GZER4R7M11
Kw Inductor
Sc 0
At SMD
AR 
Op 0 0 0
T0 0 0 1.27 1.27 0 0.254 N V 21 N "L**"
T1 0 0 1.27 1.27 0 0.254 N I 21 N "INDPM172172X700N"
DS -9.375 -8.825 9.375 -8.825 0.05 24
DS 9.375 -8.825 9.375 8.825 0.05 24
DS 9.375 8.825 -9.375 8.825 0.05 24
DS -9.375 8.825 -9.375 -8.825 0.05 24
DS -8.575 -8.575 8.575 -8.575 0.1 24
DS 8.575 -8.575 8.575 8.575 0.1 24
DS 8.575 8.575 -8.575 8.575 0.1 24
DS -8.575 8.575 -8.575 -8.575 0.1 24
DS 8.575 -8.575 -8.575 -8.575 0.2 21
DS -8.575 8.575 8.575 8.575 0.2 21
$PAD
Po -7.6 0
Sh "1" R 3.05 12.15 0 0 0
At SMD N 00888000
Ne 0 ""
$EndPAD
$PAD
Po 7.6 0
Sh "2" R 3.05 12.15 0 0 0
At SMD N 00888000
Ne 0 ""
$EndPAD
$EndMODULE INDPM172172X700N
$EndLIBRARY
