PCBNEW-LibModule-V1  2020-03-26 12:31:56
# encoding utf-8
Units mm
$INDEX
SOP50P490X110-17N
$EndINDEX
$MODULE SOP50P490X110-17N
Po 0 0 0 15 5e7ca0bc 00000000 ~~
Li SOP50P490X110-17N
Cd MSE(MSOP)
Kw Integrated Circuit
Sc 0
At SMD
AR 
Op 0 0 0
T0 0 0 1.27 1.27 0 0.254 N V 21 N "IC**"
T1 0 0 1.27 1.27 0 0.254 N I 21 N "SOP50P490X110-17N"
DS -3.175 -2.32 3.175 -2.32 0.05 24
DS 3.175 -2.32 3.175 2.32 0.05 24
DS 3.175 2.32 -3.175 2.32 0.05 24
DS -3.175 2.32 -3.175 -2.32 0.05 24
DS -1.5 -2.02 1.5 -2.02 0.1 24
DS 1.5 -2.02 1.5 2.02 0.1 24
DS 1.5 2.02 -1.5 2.02 0.1 24
DS -1.5 2.02 -1.5 -2.02 0.1 24
DS -1.5 -1.52 -1 -2.02 0.1 24
DS -2.925 -2.25 -1.5 -2.25 0.2 21
$PAD
Po -2.212 -1.75
Sh "1" R 0.3 1.425 0 0 900
At SMD N 00888000
Ne 0 ""
$EndPAD
$PAD
Po -2.212 -1.25
Sh "2" R 0.3 1.425 0 0 900
At SMD N 00888000
Ne 0 ""
$EndPAD
$PAD
Po -2.212 -0.75
Sh "3" R 0.3 1.425 0 0 900
At SMD N 00888000
Ne 0 ""
$EndPAD
$PAD
Po -2.212 -0.25
Sh "4" R 0.3 1.425 0 0 900
At SMD N 00888000
Ne 0 ""
$EndPAD
$PAD
Po -2.212 0.25
Sh "5" R 0.3 1.425 0 0 900
At SMD N 00888000
Ne 0 ""
$EndPAD
$PAD
Po -2.212 0.75
Sh "6" R 0.3 1.425 0 0 900
At SMD N 00888000
Ne 0 ""
$EndPAD
$PAD
Po -2.212 1.25
Sh "7" R 0.3 1.425 0 0 900
At SMD N 00888000
Ne 0 ""
$EndPAD
$PAD
Po -2.212 1.75
Sh "8" R 0.3 1.425 0 0 900
At SMD N 00888000
Ne 0 ""
$EndPAD
$PAD
Po 2.212 1.75
Sh "9" R 0.3 1.425 0 0 900
At SMD N 00888000
Ne 0 ""
$EndPAD
$PAD
Po 2.212 1.25
Sh "10" R 0.3 1.425 0 0 900
At SMD N 00888000
Ne 0 ""
$EndPAD
$PAD
Po 2.212 0.75
Sh "11" R 0.3 1.425 0 0 900
At SMD N 00888000
Ne 0 ""
$EndPAD
$PAD
Po 2.212 0.25
Sh "12" R 0.3 1.425 0 0 900
At SMD N 00888000
Ne 0 ""
$EndPAD
$PAD
Po 2.212 -0.25
Sh "13" R 0.3 1.425 0 0 900
At SMD N 00888000
Ne 0 ""
$EndPAD
$PAD
Po 2.212 -0.75
Sh "14" R 0.3 1.425 0 0 900
At SMD N 00888000
Ne 0 ""
$EndPAD
$PAD
Po 2.212 -1.25
Sh "15" R 0.3 1.425 0 0 900
At SMD N 00888000
Ne 0 ""
$EndPAD
$PAD
Po 2.212 -1.75
Sh "16" R 0.3 1.425 0 0 900
At SMD N 00888000
Ne 0 ""
$EndPAD
$PAD
Po 0 0
Sh "17" R 1.753 2.947 0 0 0
At SMD N 00888000
Ne 0 ""
$EndPAD
$EndMODULE SOP50P490X110-17N
$EndLIBRARY
