PCBNEW-LibModule-V1  2020-03-28 17:50:43
# encoding utf-8
Units mm
$INDEX
SOT95P280X145-6N
$EndINDEX
$MODULE SOT95P280X145-6N
Po 0 0 0 15 5e7f8e73 00000000 ~~
Li SOT95P280X145-6N
Cd  6 SOT23-6
Kw Integrated Circuit
Sc 0
At SMD
AR 
Op 0 0 0
T0 0 0 1.27 1.27 0 0.254 N V 21 N "IC**"
T1 0 0 1.27 1.27 0 0.254 N I 21 N "SOT95P280X145-6N"
DS -2.125 -1.75 2.125 -1.75 0.05 24
DS 2.125 -1.75 2.125 1.75 0.05 24
DS 2.125 1.75 -2.125 1.75 0.05 24
DS -2.125 1.75 -2.125 -1.75 0.05 24
DS -0.812 -1.45 0.812 -1.45 0.1 24
DS 0.812 -1.45 0.812 1.45 0.1 24
DS 0.812 1.45 -0.812 1.45 0.1 24
DS -0.812 1.45 -0.812 -1.45 0.1 24
DS -0.812 -0.5 0.138 -1.45 0.1 24
DS -0.275 -1.45 0.275 -1.45 0.2 21
DS 0.275 -1.45 0.275 1.45 0.2 21
DS 0.275 1.45 -0.275 1.45 0.2 21
DS -0.275 1.45 -0.275 -1.45 0.2 21
DS -1.875 -1.6 -0.625 -1.6 0.2 21
$PAD
Po -1.25 -0.95
Sh "1" R 0.6 1.25 0 0 900
At SMD N 00888000
Ne 0 ""
$EndPAD
$PAD
Po -1.25 0
Sh "2" R 0.6 1.25 0 0 900
At SMD N 00888000
Ne 0 ""
$EndPAD
$PAD
Po -1.25 0.95
Sh "3" R 0.6 1.25 0 0 900
At SMD N 00888000
Ne 0 ""
$EndPAD
$PAD
Po 1.25 0.95
Sh "4" R 0.6 1.25 0 0 900
At SMD N 00888000
Ne 0 ""
$EndPAD
$PAD
Po 1.25 0
Sh "5" R 0.6 1.25 0 0 900
At SMD N 00888000
Ne 0 ""
$EndPAD
$PAD
Po 1.25 -0.95
Sh "6" R 0.6 1.25 0 0 900
At SMD N 00888000
Ne 0 ""
$EndPAD
$EndMODULE SOT95P280X145-6N
$EndLIBRARY
