PCBNEW-LibModule-V1  2020-03-03 18:29:00
# encoding utf-8
Units mm
$INDEX
SOT230P700X180-4N
$EndINDEX
$MODULE SOT230P700X180-4N
Po 0 0 0 15 5e5ea1ec 00000000 ~~
Li SOT230P700X180-4N
Cd SOT-223 ST SUFFIX CASE 318E-04 ISSUE O
Kw Integrated Circuit
Sc 0
At SMD
AR 
Op 0 0 0
T0 0 0 1.27 1.27 0 0.254 N V 21 N "IC**"
T1 0 0 1.27 1.27 0 0.254 N I 21 N "SOT230P700X180-4N"
DS -4.275 -3.6 4.275 -3.6 0.05 24
DS 4.275 -3.6 4.275 3.6 0.05 24
DS 4.275 3.6 -4.275 3.6 0.05 24
DS -4.275 3.6 -4.275 -3.6 0.05 24
DS -1.75 -3.25 1.75 -3.25 0.1 24
DS 1.75 -3.25 1.75 3.25 0.1 24
DS 1.75 3.25 -1.75 3.25 0.1 24
DS -1.75 3.25 -1.75 -3.25 0.1 24
DS -1.75 -0.95 0.55 -3.25 0.1 24
DS -1.75 -3.25 1.75 -3.25 0.2 21
DS 1.75 -3.25 1.75 3.25 0.2 21
DS 1.75 3.25 -1.75 3.25 0.2 21
DS -1.75 3.25 -1.75 -3.25 0.2 21
DS -4.025 -3.125 -2.775 -3.125 0.2 21
$PAD
Po -3.4 -2.3
Sh "1" R 0.95 1.25 0 0 900
At SMD N 00888000
Ne 0 ""
$EndPAD
$PAD
Po -3.4 0
Sh "2" R 0.95 1.25 0 0 900
At SMD N 00888000
Ne 0 ""
$EndPAD
$PAD
Po -3.4 2.3
Sh "3" R 0.95 1.25 0 0 900
At SMD N 00888000
Ne 0 ""
$EndPAD
$PAD
Po 3.4 0
Sh "4" R 1.25 3.2 0 0 0
At SMD N 00888000
Ne 0 ""
$EndPAD
$EndMODULE SOT230P700X180-4N
$EndLIBRARY
