PCBNEW-LibModule-V1  2020-03-28 15:22:15
# encoding utf-8
Units mm
$INDEX
TO254P1524X483-4N
$EndINDEX
$MODULE TO254P1524X483-4N
Po 0 0 0 15 5e7f6ba7 00000000 ~~
Li TO254P1524X483-4N
Cd KTT (R-PSFM-G3)
Kw Diode
Sc 0
At SMD
AR 
Op 0 0 0
T0 0 0 1.27 1.27 0 0.254 N V 21 N "D**"
T1 0 0 1.27 1.27 0 0.254 N I 21 N "TO254P1524X483-4N"
DS -3.642 5.335 6.008 5.335 0.001 24
DS 6.008 5.335 6.008 -5.335 0.001 24
DS 6.008 -5.335 -3.642 -5.335 0.001 24
DS -3.642 -5.335 -3.642 5.335 0.001 24
DS -8.55 5.65 8.55 5.65 0.05 24
DS 8.55 5.65 8.55 -5.65 0.05 24
DS 8.55 -5.65 -8.55 -5.65 0.05 24
DS -8.55 -5.65 -8.55 5.65 0.05 24
DS 0 0.5 0 -0.5 0.05 24
DS -0.5 0 0.5 0 0.05 24
DS -3.575 5.08 5.94 5.08 0.1 24
DS 5.94 5.08 5.94 -5.08 0.1 24
DS 5.94 -5.08 -3.575 -5.08 0.1 24
DS -3.575 -5.08 -3.575 5.08 0.1 24
DS 5.94 5.08 6.494 5.08 0.1 24
DS 6.494 5.08 7.62 3.833 0.1 24
DS 7.62 3.833 7.62 -3.833 0.1 24
DS 7.62 -3.833 6.494 -5.08 0.1 24
DS 6.494 -5.08 5.94 -5.08 0.1 24
DS -1.05 5.1 -4.15 5.1 0.2 21
DS -4.15 5.1 -4.15 -5.1 0.2 21
DS -4.15 -5.1 -1.05 -5.1 0.2 21
DC -8.05 -3.55 -8.175 -3.55 0.254 21
$PAD
Po -6.4 -2.54
Sh "1" R 1 3.8 0 0 900
At SMD N 00888000
Ne 0 ""
$EndPAD
$PAD
Po -6.4 0
Sh "2" R 1 3.8 0 0 900
At SMD N 00888000
Ne 0 ""
$EndPAD
$PAD
Po -6.4 2.54
Sh "3" R 1 3.8 0 0 900
At SMD N 00888000
Ne 0 ""
$EndPAD
$PAD
Po 3.8 0
Sh "4" R 9 10.75 0 0 0
At SMD N 00888000
Ne 0 ""
$EndPAD
$EndMODULE TO254P1524X483-4N
$EndLIBRARY
